﻿𝜆-NIC,Container,Bare Metal,Threads,Type
0.618531,455.183745,16.3664186,1,Web Server
0.175127,34.6387794,9.619521,56,Web Server
1923.806019,9395.262846,5932.755653,1,Image Transform
48.6826176,720.2063948,240.8188602,56,Image Transform
1.2077146,515.694356,17.0270876,1,Memcached GET
0.3755828,38.853676,9.9582048,56,Memcached GET
1.2077674,515.4918248,17.0267718,1,Memcached SET
0.3951594,39.0039488,10.038129,56,Memcached SET